%!PS-Adobe-3.0 EPSF-3.0
%%Title: ./saved/paper/biobj/fig_check_biobj.eps
%%Creator: matplotlib version 3.2.2, http://matplotlib.org/
%%CreationDate: Wed Aug 26 11:44:48 2020
%%Orientation: portrait
%%BoundingBox: 162.0 208.79999999999998 450.0 583.2
%%EndComments
%%BeginProlog
/mpldict 9 dict def
mpldict begin
/m { moveto } bind def
/l { lineto } bind def
/r { rlineto } bind def
/c { curveto } bind def
/cl { closepath } bind def
/box {
m
1 index 0 r
0 exch r
neg 0 r
cl
} bind def
/clipbox {
box
clip
newpath
} bind def
%!PS-Adobe-3.0 Resource-Font
%%Title: DejaVu Sans
%%Copyright: Copyright (c) 2003 by Bitstream, Inc. All Rights Reserved. Copyright (c) 2006 by Tavmjong Bah. All Rights Reserved. DejaVu changes are in public domain 
%%Creator: Converted from TrueType to type 3 by PPR
25 dict begin
/_d{bind def}bind def
/_m{moveto}_d
/_l{lineto}_d
/_cl{closepath eofill}_d
/_c{curveto}_d
/_sc{7 -1 roll{setcachedevice}{pop pop pop pop pop pop}ifelse}_d
/_e{exec}_d
/FontName /DejaVuSans def
/PaintType 0 def
/FontMatrix[.001 0 0 .001 0 0]def
/FontBBox[-1021 -463 1793 1232]def
/FontType 3 def
/Encoding [ /space /percent /parenleft /parenright /period /slash /zero /one /two /three /four /five /six /nine /equal /V /a /b /c /d /e /f /g /i /k /l /m /n /s /minus ] def
/FontInfo 10 dict dup begin
/FamilyName (DejaVu Sans) def
/FullName (DejaVu Sans) def
/Notice (Copyright (c) 2003 by Bitstream, Inc. All Rights Reserved. Copyright (c) 2006 by Tavmjong Bah. All Rights Reserved. DejaVu changes are in public domain ) def
/Weight (Book) def
/Version (Version 2.35) def
/ItalicAngle 0.0 def
/isFixedPitch false def
/UnderlinePosition -130 def
/UnderlineThickness 90 def
end readonly def
/CharStrings 31 dict dup begin
/.notdef 0 def
/space{318 0 0 0 0 0 _sc
}_d
/percent{{950 0 55 -13 895 742 _sc
727 321 _m
699 321 676 309 660 285 _c
644 261 636 227 636 184 _c
636 142 644 108 660 84 _c
676 60 699 48 727 48 _c
755 48 777 60 793 84 _c
809 108 817 142 817 184 _c
817 226 809 260 793 284 _c
777 308 755 321 727 321 _c
727 383 _m
778 383 819 365 849 329 _c
879 293 895 244 895 184 _c
895 123 879 75 849 40 _c
819 4 778 -13 727 -13 _c
}_e{675 -13 633 4 603 40 _c
573 75 558 123 558 184 _c
558 245 573 293 603 329 _c
633 365 675 383 727 383 _c
223 680 _m
195 680 173 667 157 643 _c
141 619 133 586 133 544 _c
133 500 141 467 157 443 _c
173 419 195 407 223 407 _c
251 407 274 419 290 443 _c
306 467 314 500 314 544 _c
314 586 305 619 289 643 _c
273 667 251 680 223 680 _c
664 742 _m
742 742 _l
286 -13 _l
}_e{208 -13 _l
664 742 _l
223 742 _m
274 742 315 724 346 688 _c
376 652 392 604 392 544 _c
392 482 376 434 346 398 _c
316 362 275 345 223 345 _c
171 345 130 362 100 398 _c
70 434 55 482 55 544 _c
55 604 70 652 100 688 _c
130 724 171 742 223 742 _c
_cl}_e}_d
/parenleft{390 0 86 -131 310 759 _sc
310 759 _m
266 683 234 609 213 536 _c
191 463 181 389 181 314 _c
181 238 191 164 213 91 _c
234 17 266 -56 310 -131 _c
232 -131 _l
183 -54 146 20 122 94 _c
98 168 86 241 86 314 _c
86 386 98 459 122 533 _c
146 607 182 682 232 759 _c
310 759 _l
_cl}_d
/parenright{390 0 80 -131 304 759 _sc
80 759 _m
158 759 _l
206 682 243 607 267 533 _c
291 459 304 386 304 314 _c
304 241 291 168 267 94 _c
243 20 206 -54 158 -131 _c
80 -131 _l
123 -56 155 17 177 91 _c
198 164 209 238 209 314 _c
209 389 198 463 177 536 _c
155 609 123 683 80 759 _c
_cl}_d
/period{318 0 107 0 210 124 _sc
107 124 _m
210 124 _l
210 0 _l
107 0 _l
107 124 _l
_cl}_d
/slash{337 0 0 -92 337 729 _sc
254 729 _m
337 729 _l
83 -92 _l
0 -92 _l
254 729 _l
_cl}_d
/zero{636 0 66 -13 570 742 _sc
318 664 _m
267 664 229 639 203 589 _c
177 539 165 464 165 364 _c
165 264 177 189 203 139 _c
229 89 267 64 318 64 _c
369 64 407 89 433 139 _c
458 189 471 264 471 364 _c
471 464 458 539 433 589 _c
407 639 369 664 318 664 _c
318 742 _m
399 742 461 709 505 645 _c
548 580 570 486 570 364 _c
570 241 548 147 505 83 _c
461 19 399 -13 318 -13 _c
236 -13 173 19 130 83 _c
87 147 66 241 66 364 _c
66 486 87 580 130 645 _c
173 709 236 742 318 742 _c
_cl}_d
/one{636 0 110 0 544 729 _sc
124 83 _m
285 83 _l
285 639 _l
110 604 _l
110 694 _l
284 729 _l
383 729 _l
383 83 _l
544 83 _l
544 0 _l
124 0 _l
124 83 _l
_cl}_d
/two{{636 0 73 0 536 742 _sc
192 83 _m
536 83 _l
536 0 _l
73 0 _l
73 83 _l
110 121 161 173 226 239 _c
290 304 331 346 348 365 _c
380 400 402 430 414 455 _c
426 479 433 504 433 528 _c
433 566 419 598 392 622 _c
365 646 330 659 286 659 _c
255 659 222 653 188 643 _c
154 632 117 616 78 594 _c
78 694 _l
118 710 155 722 189 730 _c
223 738 255 742 284 742 _c
}_e{359 742 419 723 464 685 _c
509 647 532 597 532 534 _c
532 504 526 475 515 449 _c
504 422 484 390 454 354 _c
446 344 420 317 376 272 _c
332 227 271 164 192 83 _c
_cl}_e}_d
/three{{636 0 76 -13 556 742 _sc
406 393 _m
453 383 490 362 516 330 _c
542 298 556 258 556 212 _c
556 140 531 84 482 45 _c
432 6 362 -13 271 -13 _c
240 -13 208 -10 176 -4 _c
144 1 110 10 76 22 _c
76 117 _l
103 101 133 89 166 81 _c
198 73 232 69 268 69 _c
330 69 377 81 409 105 _c
441 129 458 165 458 212 _c
458 254 443 288 413 312 _c
383 336 341 349 287 349 _c
}_e{202 349 _l
202 430 _l
291 430 _l
339 430 376 439 402 459 _c
428 478 441 506 441 543 _c
441 580 427 609 401 629 _c
374 649 336 659 287 659 _c
260 659 231 656 200 650 _c
169 644 135 635 98 623 _c
98 711 _l
135 721 170 729 203 734 _c
235 739 266 742 296 742 _c
370 742 429 725 473 691 _c
517 657 539 611 539 553 _c
539 513 527 479 504 451 _c
481 423 448 403 406 393 _c
_cl}_e}_d
/four{636 0 49 0 580 729 _sc
378 643 _m
129 254 _l
378 254 _l
378 643 _l
352 729 _m
476 729 _l
476 254 _l
580 254 _l
580 172 _l
476 172 _l
476 0 _l
378 0 _l
378 172 _l
49 172 _l
49 267 _l
352 729 _l
_cl}_d
/five{{636 0 77 -13 549 729 _sc
108 729 _m
495 729 _l
495 646 _l
198 646 _l
198 467 _l
212 472 227 476 241 478 _c
255 480 270 482 284 482 _c
365 482 429 459 477 415 _c
525 370 549 310 549 234 _c
549 155 524 94 475 51 _c
426 8 357 -13 269 -13 _c
238 -13 207 -10 175 -6 _c
143 -1 111 6 77 17 _c
77 116 _l
106 100 136 88 168 80 _c
199 72 232 69 267 69 _c
}_e{323 69 368 83 401 113 _c
433 143 450 183 450 234 _c
450 284 433 324 401 354 _c
368 384 323 399 267 399 _c
241 399 214 396 188 390 _c
162 384 135 375 108 363 _c
108 729 _l
_cl}_e}_d
/six{{636 0 70 -13 573 742 _sc
330 404 _m
286 404 251 388 225 358 _c
199 328 186 286 186 234 _c
186 181 199 139 225 109 _c
251 79 286 64 330 64 _c
374 64 409 79 435 109 _c
461 139 474 181 474 234 _c
474 286 461 328 435 358 _c
409 388 374 404 330 404 _c
526 713 _m
526 623 _l
501 635 476 644 451 650 _c
425 656 400 659 376 659 _c
310 659 260 637 226 593 _c
}_e{192 549 172 482 168 394 _c
187 422 211 444 240 459 _c
269 474 301 482 336 482 _c
409 482 467 459 509 415 _c
551 371 573 310 573 234 _c
573 159 550 99 506 54 _c
462 9 403 -13 330 -13 _c
246 -13 181 19 137 83 _c
92 147 70 241 70 364 _c
70 479 97 571 152 639 _c
206 707 280 742 372 742 _c
396 742 421 739 447 735 _c
472 730 498 723 526 713 _c
_cl}_e}_d
/nine{{636 0 63 -13 566 742 _sc
110 15 _m
110 105 _l
134 93 159 84 185 78 _c
210 72 235 69 260 69 _c
324 69 374 90 408 134 _c
442 178 462 244 468 334 _c
448 306 424 284 396 269 _c
367 254 335 247 300 247 _c
226 247 168 269 126 313 _c
84 357 63 417 63 494 _c
63 568 85 628 129 674 _c
173 719 232 742 306 742 _c
390 742 455 709 499 645 _c
543 580 566 486 566 364 _c
}_e{566 248 538 157 484 89 _c
429 21 356 -13 264 -13 _c
239 -13 214 -10 189 -6 _c
163 -2 137 5 110 15 _c
306 324 _m
350 324 385 339 411 369 _c
437 399 450 441 450 494 _c
450 546 437 588 411 618 _c
385 648 350 664 306 664 _c
262 664 227 648 201 618 _c
175 588 162 546 162 494 _c
162 441 175 399 201 369 _c
227 339 262 324 306 324 _c
_cl}_e}_d
/equal{838 0 106 172 732 454 _sc
106 454 _m
732 454 _l
732 372 _l
106 372 _l
106 454 _l
106 255 _m
732 255 _l
732 172 _l
106 172 _l
106 255 _l
_cl}_d
/V{684 0 8 0 676 729 _sc
286 0 _m
8 729 _l
111 729 _l
342 115 _l
573 729 _l
676 729 _l
398 0 _l
286 0 _l
_cl}_d
/a{{613 0 60 -13 522 560 _sc
343 275 _m
270 275 220 266 192 250 _c
164 233 150 205 150 165 _c
150 133 160 107 181 89 _c
202 70 231 61 267 61 _c
317 61 357 78 387 114 _c
417 149 432 196 432 255 _c
432 275 _l
343 275 _l
522 312 _m
522 0 _l
432 0 _l
432 83 _l
411 49 385 25 355 10 _c
325 -5 287 -13 243 -13 _c
187 -13 142 2 109 33 _c
76 64 60 106 60 159 _c
}_e{60 220 80 266 122 298 _c
163 329 224 345 306 345 _c
432 345 _l
432 354 _l
432 395 418 427 391 450 _c
364 472 326 484 277 484 _c
245 484 215 480 185 472 _c
155 464 127 453 100 439 _c
100 522 _l
132 534 164 544 195 550 _c
226 556 256 560 286 560 _c
365 560 424 539 463 498 _c
502 457 522 395 522 312 _c
_cl}_e}_d
/b{{635 0 91 -13 580 760 _sc
487 273 _m
487 339 473 390 446 428 _c
418 466 381 485 334 485 _c
286 485 249 466 222 428 _c
194 390 181 339 181 273 _c
181 207 194 155 222 117 _c
249 79 286 61 334 61 _c
381 61 418 79 446 117 _c
473 155 487 207 487 273 _c
181 464 _m
199 496 223 520 252 536 _c
281 552 316 560 356 560 _c
422 560 476 533 518 481 _c
559 428 580 359 580 273 _c
}_e{580 187 559 117 518 65 _c
476 13 422 -13 356 -13 _c
316 -13 281 -5 252 10 _c
223 25 199 49 181 82 _c
181 0 _l
91 0 _l
91 760 _l
181 760 _l
181 464 _l
_cl}_e}_d
/c{{550 0 55 -13 488 560 _sc
488 526 _m
488 442 _l
462 456 437 466 411 473 _c
385 480 360 484 334 484 _c
276 484 230 465 198 428 _c
166 391 150 339 150 273 _c
150 206 166 154 198 117 _c
230 80 276 62 334 62 _c
360 62 385 65 411 72 _c
437 79 462 90 488 104 _c
488 21 _l
462 9 436 0 410 -5 _c
383 -10 354 -13 324 -13 _c
242 -13 176 12 128 64 _c
}_e{79 115 55 185 55 273 _c
55 362 79 432 128 483 _c
177 534 244 560 330 560 _c
358 560 385 557 411 551 _c
437 545 463 537 488 526 _c
_cl}_e}_d
/d{{635 0 55 -13 544 760 _sc
454 464 _m
454 760 _l
544 760 _l
544 0 _l
454 0 _l
454 82 _l
435 49 411 25 382 10 _c
353 -5 319 -13 279 -13 _c
213 -13 159 13 117 65 _c
75 117 55 187 55 273 _c
55 359 75 428 117 481 _c
159 533 213 560 279 560 _c
319 560 353 552 382 536 _c
411 520 435 496 454 464 _c
148 273 _m
148 207 161 155 188 117 _c
215 79 253 61 301 61 _c
}_e{348 61 385 79 413 117 _c
440 155 454 207 454 273 _c
454 339 440 390 413 428 _c
385 466 348 485 301 485 _c
253 485 215 466 188 428 _c
161 390 148 339 148 273 _c
_cl}_e}_d
/e{{615 0 55 -13 562 560 _sc
562 296 _m
562 252 _l
149 252 _l
153 190 171 142 205 110 _c
238 78 284 62 344 62 _c
378 62 412 66 444 74 _c
476 82 509 95 541 113 _c
541 28 _l
509 14 476 3 442 -3 _c
408 -9 373 -13 339 -13 _c
251 -13 182 12 131 62 _c
80 112 55 181 55 268 _c
55 357 79 428 127 481 _c
175 533 241 560 323 560 _c
397 560 455 536 498 489 _c
}_e{540 441 562 377 562 296 _c
472 322 _m
471 371 457 410 431 440 _c
404 469 368 484 324 484 _c
274 484 234 469 204 441 _c
174 413 156 373 152 322 _c
472 322 _l
_cl}_e}_d
/f{352 0 23 0 371 760 _sc
371 760 _m
371 685 _l
285 685 _l
253 685 230 678 218 665 _c
205 652 199 629 199 595 _c
199 547 _l
347 547 _l
347 477 _l
199 477 _l
199 0 _l
109 0 _l
109 477 _l
23 477 _l
23 547 _l
109 547 _l
109 585 _l
109 645 123 690 151 718 _c
179 746 224 760 286 760 _c
371 760 _l
_cl}_d
/g{{635 0 55 -207 544 560 _sc
454 280 _m
454 344 440 395 414 431 _c
387 467 349 485 301 485 _c
253 485 215 467 188 431 _c
161 395 148 344 148 280 _c
148 215 161 165 188 129 _c
215 93 253 75 301 75 _c
349 75 387 93 414 129 _c
440 165 454 215 454 280 _c
544 68 _m
544 -24 523 -93 482 -139 _c
440 -184 377 -207 292 -207 _c
260 -207 231 -204 203 -200 _c
175 -195 147 -188 121 -178 _c
}_e{121 -91 _l
147 -105 173 -115 199 -122 _c
225 -129 251 -133 278 -133 _c
336 -133 380 -117 410 -87 _c
439 -56 454 -10 454 52 _c
454 96 _l
435 64 411 40 382 24 _c
353 8 319 0 279 0 _c
211 0 157 25 116 76 _c
75 127 55 195 55 280 _c
55 364 75 432 116 483 _c
157 534 211 560 279 560 _c
319 560 353 552 382 536 _c
411 520 435 496 454 464 _c
454 547 _l
544 547 _l
}_e{544 68 _l
_cl}_e}_d
/i{278 0 94 0 184 760 _sc
94 547 _m
184 547 _l
184 0 _l
94 0 _l
94 547 _l
94 760 _m
184 760 _l
184 646 _l
94 646 _l
94 760 _l
_cl}_d
/k{579 0 91 0 576 760 _sc
91 760 _m
181 760 _l
181 311 _l
449 547 _l
564 547 _l
274 291 _l
576 0 _l
459 0 _l
181 267 _l
181 0 _l
91 0 _l
91 760 _l
_cl}_d
/l{278 0 94 0 184 760 _sc
94 760 _m
184 760 _l
184 0 _l
94 0 _l
94 760 _l
_cl}_d
/m{{974 0 91 0 889 560 _sc
520 442 _m
542 482 569 511 600 531 _c
631 550 668 560 711 560 _c
767 560 811 540 842 500 _c
873 460 889 403 889 330 _c
889 0 _l
799 0 _l
799 327 _l
799 379 789 418 771 444 _c
752 469 724 482 686 482 _c
639 482 602 466 575 435 _c
548 404 535 362 535 309 _c
535 0 _l
445 0 _l
445 327 _l
445 379 435 418 417 444 _c
398 469 369 482 331 482 _c
}_e{285 482 248 466 221 435 _c
194 404 181 362 181 309 _c
181 0 _l
91 0 _l
91 547 _l
181 547 _l
181 462 _l
201 495 226 520 255 536 _c
283 552 317 560 357 560 _c
397 560 430 550 458 530 _c
486 510 506 480 520 442 _c
_cl}_e}_d
/n{634 0 91 0 549 560 _sc
549 330 _m
549 0 _l
459 0 _l
459 327 _l
459 379 448 417 428 443 _c
408 469 378 482 338 482 _c
289 482 251 466 223 435 _c
195 404 181 362 181 309 _c
181 0 _l
91 0 _l
91 547 _l
181 547 _l
181 462 _l
202 494 227 519 257 535 _c
286 551 320 560 358 560 _c
420 560 468 540 500 501 _c
532 462 549 405 549 330 _c
_cl}_d
/s{{521 0 54 -13 472 560 _sc
443 531 _m
443 446 _l
417 458 391 468 364 475 _c
336 481 308 485 279 485 _c
234 485 200 478 178 464 _c
156 450 145 430 145 403 _c
145 382 153 366 169 354 _c
185 342 217 330 265 320 _c
296 313 _l
360 299 405 279 432 255 _c
458 230 472 195 472 151 _c
472 100 452 60 412 31 _c
372 1 316 -13 246 -13 _c
216 -13 186 -10 154 -5 _c
}_e{122 0 89 8 54 20 _c
54 113 _l
87 95 120 82 152 74 _c
184 65 216 61 248 61 _c
290 61 323 68 346 82 _c
368 96 380 117 380 144 _c
380 168 371 187 355 200 _c
339 213 303 226 247 238 _c
216 245 _l
160 257 119 275 95 299 _c
70 323 58 356 58 399 _c
58 450 76 490 112 518 _c
148 546 200 560 268 560 _c
301 560 332 557 362 552 _c
391 547 418 540 443 531 _c
}_e{_cl}_e}_d
/minus{838 0 106 272 732 355 _sc
106 355 _m
732 355 _l
732 272 _l
106 272 _l
106 355 _l
_cl}_d
end readonly def

/BuildGlyph
 {exch begin
 CharStrings exch
 2 copy known not{pop /.notdef}if
 true 3 1 roll get exec
 end}_d

/BuildChar {
 1 index /Encoding get exch get
 1 index /BuildGlyph get exec
}_d

FontName currentdict end definefont pop
%!PS-Adobe-3.0 Resource-Font
%%Title: DejaVu Sans Oblique
%%Copyright: Copyright (c) 2003 by Bitstream, Inc. All Rights Reserved. Copyright (c) 2006 by Tavmjong Bah. All Rights Reserved. DejaVu changes are in public domain 
%%Creator: Converted from TrueType to type 3 by PPR
25 dict begin
/_d{bind def}bind def
/_m{moveto}_d
/_l{lineto}_d
/_cl{closepath eofill}_d
/_c{curveto}_d
/_sc{7 -1 roll{setcachedevice}{pop pop pop pop pop pop}ifelse}_d
/_e{exec}_d
/FontName /DejaVuSans-Oblique def
/PaintType 0 def
/FontMatrix[.001 0 0 .001 0 0]def
/FontBBox[-1016 -350 1659 1068]def
/FontType 3 def
/Encoding [ /p /theta /kappa /sigma ] def
/FontInfo 10 dict dup begin
/FamilyName (DejaVu Sans) def
/FullName (DejaVu Sans Oblique) def
/Notice (Copyright (c) 2003 by Bitstream, Inc. All Rights Reserved. Copyright (c) 2006 by Tavmjong Bah. All Rights Reserved. DejaVu changes are in public domain ) def
/Weight (Oblique) def
/Version (Version 2.35) def
/ItalicAngle -11.0 def
/isFixedPitch false def
/UnderlinePosition -130 def
/UnderlineThickness 90 def
end readonly def
/CharStrings 5 dict dup begin
/.notdef 0 def
/p{{635 0 -2 -207 589 560 _sc
496 337 _m
496 385 485 421 465 447 _c
444 472 414 485 375 485 _c
348 485 322 478 298 464 _c
274 450 252 431 234 405 _c
215 379 200 347 189 311 _c
178 275 173 239 173 203 _c
173 157 183 122 204 98 _c
224 73 254 61 293 61 _c
321 61 347 67 371 81 _c
395 94 416 113 434 139 _c
452 165 467 197 479 233 _c
490 269 496 304 496 337 _c
218 464 _m
}_e{242 495 270 519 303 535 _c
335 551 372 560 412 560 _c
468 560 511 541 542 505 _c
573 468 589 417 589 351 _c
589 297 579 245 560 196 _c
540 147 513 103 477 65 _c
453 39 425 19 395 6 _c
365 -6 333 -13 300 -13 _c
261 -13 228 -5 202 10 _c
176 26 156 50 143 82 _c
87 -207 _l
-2 -207 _l
144 547 _l
234 547 _l
218 464 _l
_cl}_e}_d
/theta{{612 0 55 -10 557 768 _sc
455 347 _m
145 347 _l
131 249 131 180 145 139 _c
163 88 196 63 245 63 _c
293 63 336 88 374 139 _c
406 184 433 253 455 347 _c
470 430 _m
478 522 477 584 466 617 _c
448 668 415 694 368 694 _c
318 694 274 668 238 618 _c
209 577 184 514 162 430 _c
470 430 _l
382 768 _m
460 768 514 733 546 664 _c
577 595 581 500 557 378 _c
533 256 493 161 435 93 _c
}_e{377 24 308 -10 230 -10 _c
152 -10 97 24 66 93 _c
35 161 31 256 55 378 _c
79 500 119 595 177 664 _c
235 733 303 768 382 768 _c
_cl}_e}_d
/kappa{589 0 40 0 584 547 _sc
146 547 _m
239 547 _l
195 320 _l
475 547 _l
584 547 _l
329 341 _l
512 0 _l
402 0 _l
254 282 _l
175 219 _l
133 0 _l
40 0 _l
146 547 _l
_cl}_d
/sigma{{634 0 57 -13 659 547 _sc
347 476 _m
297 476 255 458 222 422 _c
186 384 163 335 151 273 _c
138 207 142 156 163 118 _c
183 80 218 62 267 62 _c
314 62 355 81 391 119 _c
426 156 450 207 463 273 _c
474 332 470 382 450 422 _c
431 458 397 476 347 476 _c
361 547 _m
659 547 _l
642 457 _l
541 457 _l
566 406 572 345 559 273 _c
541 183 505 113 451 63 _c
396 12 329 -13 251 -13 _c
}_e{173 -13 116 12 82 63 _c
47 113 39 183 57 273 _c
74 363 110 433 164 484 _c
209 526 275 547 361 547 _c
_cl}_e}_d
end readonly def

/BuildGlyph
 {exch begin
 CharStrings exch
 2 copy known not{pop /.notdef}if
 true 3 1 roll get exec
 end}_d

/BuildChar {
 1 index /Encoding get exch get
 1 index /BuildGlyph get exec
}_d

FontName currentdict end definefont pop
end
%%EndProlog
mpldict begin
162 208.8 translate
288 374.4 0 0 clipbox
gsave
0 0 m
288 0 l
288 374.4 l
0 374.4 l
cl
1.000 setgray
fill
grestore
gsave
57.672 267.364089 m
274.005 267.364089 l
274.005 362.974871 l
57.672 362.974871 l
cl
1.000 setgray
fill
grestore
0.800 setlinewidth
1 setlinejoin
0 setlinecap
[] 0 setdash
0.000 setgray
gsave
/o {
gsave
newpath
translate
0.8 setlinewidth
1 setlinejoin
0 setlinecap
0 0 m
0 -3.5 l

gsave
0.000 setgray
fill
grestore
stroke
grestore
} bind def
57.672 267.364 o
grestore
gsave
/o {
gsave
newpath
translate
0.8 setlinewidth
1 setlinejoin
0 setlinecap
0 0 m
0 -3.5 l

gsave
0.000 setgray
fill
grestore
stroke
grestore
} bind def
111.755 267.364 o
grestore
gsave
/o {
gsave
newpath
translate
0.8 setlinewidth
1 setlinejoin
0 setlinecap
0 0 m
0 -3.5 l

gsave
0.000 setgray
fill
grestore
stroke
grestore
} bind def
165.839 267.364 o
grestore
gsave
/o {
gsave
newpath
translate
0.8 setlinewidth
1 setlinejoin
0 setlinecap
0 0 m
0 -3.5 l

gsave
0.000 setgray
fill
grestore
stroke
grestore
} bind def
219.922 267.364 o
grestore
gsave
/o {
gsave
newpath
translate
0.8 setlinewidth
1 setlinejoin
0 setlinecap
0 0 m
0 -3.5 l

gsave
0.000 setgray
fill
grestore
stroke
grestore
} bind def
274.005 267.364 o
grestore
gsave
/o {
gsave
newpath
translate
0.8 setlinewidth
1 setlinejoin
0 setlinecap
0 0 m
-3.5 0 l

gsave
0.000 setgray
fill
grestore
stroke
grestore
} bind def
57.672 268.771 o
grestore
/DejaVuSans findfont
10.000 scalefont
setfont
gsave
29.578250 264.974348 translate
0.000000 rotate
0.000000 0 m /minus glyphshow
8.378906 0 m /five glyphshow
14.741211 0 m /zero glyphshow
grestore
gsave
/o {
gsave
newpath
translate
0.8 setlinewidth
1 setlinejoin
0 setlinecap
0 0 m
-3.5 0 l

gsave
0.000 setgray
fill
grestore
stroke
grestore
} bind def
57.672 297.843 o
grestore
gsave
29.578250 294.046302 translate
0.000000 rotate
0.000000 0 m /minus glyphshow
8.378906 0 m /two glyphshow
14.741211 0 m /five glyphshow
grestore
gsave
/o {
gsave
newpath
translate
0.8 setlinewidth
1 setlinejoin
0 setlinecap
0 0 m
-3.5 0 l

gsave
0.000 setgray
fill
grestore
stroke
grestore
} bind def
57.672 326.915 o
grestore
gsave
44.312625 323.118256 translate
0.000000 rotate
0.000000 0 m /zero glyphshow
grestore
gsave
/o {
gsave
newpath
translate
0.8 setlinewidth
1 setlinejoin
0 setlinecap
0 0 m
-3.5 0 l

gsave
0.000 setgray
fill
grestore
stroke
grestore
} bind def
57.672 355.987 o
grestore
gsave
37.953250 352.190211 translate
0.000000 rotate
0.000000 0 m /two glyphshow
6.362305 0 m /five glyphshow
grestore
gsave
23.078250 298.669480 translate
90.000000 rotate
/DejaVuSans-Oblique findfont
12.0 scalefont
setfont
0.000000 0.890625 moveto
/sigma glyphshow
/DejaVuSans findfont
12.0 scalefont
setfont
7.605469 0.890625 moveto
/space glyphshow
11.419922 0.890625 moveto
/parenleft glyphshow
16.101562 0.890625 moveto
/percent glyphshow
27.503906 0.890625 moveto
/parenright glyphshow

grestore
1.500 setlinewidth
2 setlinecap
0.608 0.349 0.714 setrgbcolor
gsave
216.3 95.61 57.67 267.4 clipbox
57.672 326.915131 m
68.48865 326.229094 l
79.3053 324.276528 l
90.12195 321.330439 l
100.9386 317.73124 l
111.75525 313.802428 l
122.5719 309.773069 l
133.38855 305.806162 l
144.2052 301.995738 l
155.02185 298.400953 l
165.8385 295.023106 l
176.65515 291.872003 l
187.4718 288.94003 l
198.28845 286.222031 l
209.1051 283.689074 l
219.92175 281.33235 l
230.7384 279.141314 l
241.55505 277.093303 l
252.3717 275.179362 l
263.18835 273.387593 l
274.005 271.710034 l
stroke
grestore
0.180 0.800 0.443 setrgbcolor
gsave
216.3 95.61 57.67 267.4 clipbox
57.672 326.915131 m
68.48865 326.524918 l
79.3053 325.393368 l
90.12195 323.630607 l
100.9386 321.392521 l
111.75525 318.857562 l
122.5719 316.152552 l
133.38855 313.390934 l
144.2052 310.646738 l
155.02185 307.985785 l
165.8385 305.404834 l
176.65515 302.931835 l
187.4718 300.585883 l
198.28845 298.344823 l
209.1051 296.216694 l
219.92175 294.197267 l
230.7384 292.290931 l
241.55505 290.473419 l
252.3717 288.747558 l
263.18835 287.107537 l
274.005 285.554585 l
stroke
grestore
0.584 0.647 0.651 setrgbcolor
gsave
216.3 95.61 57.67 267.4 clipbox
57.672 326.915131 m
68.48865 334.729764 l
79.3053 344.29362 l
90.12195 347.970239 l
100.9386 348.891255 l
111.75525 348.127258 l
122.5719 346.299429 l
133.38855 343.74773 l
144.2052 340.831977 l
155.02185 337.723902 l
165.8385 334.558971 l
176.65515 331.398465 l
187.4718 328.345813 l
198.28845 325.406649 l
209.1051 322.596777 l
219.92175 319.922507 l
230.7384 317.365101 l
241.55505 314.959031 l
252.3717 312.680224 l
263.18835 310.522163 l
274.005 308.477835 l
stroke
grestore
0.906 0.298 0.235 setrgbcolor
gsave
216.3 95.61 57.67 267.4 clipbox
57.672 326.915131 m
68.48865 329.676318 l
79.3053 336.477055 l
90.12195 344.582177 l
100.9386 351.629631 l
111.75525 356.287038 l
122.5719 358.438943 l
133.38855 358.628926 l
144.2052 357.488672 l
155.02185 355.514796 l
165.8385 353.063064 l
176.65515 350.35468 l
187.4718 347.535336 l
198.28845 344.687753 l
209.1051 341.881399 l
219.92175 339.144082 l
230.7384 336.486741 l
241.55505 333.93556 l
252.3717 331.487107 l
263.18835 329.14182 l
274.005 326.89781 l
stroke
grestore
0.800 setlinewidth
0 setlinejoin
[] 0 setdash
0.000 setgray
gsave
57.672 267.364089 m
57.672 362.974871 l
stroke
grestore
gsave
274.005 267.364089 m
274.005 362.974871 l
stroke
grestore
gsave
57.672 267.364089 m
274.005 267.364089 l
stroke
grestore
gsave
57.672 362.974871 m
274.005 362.974871 l
stroke
grestore
/DejaVuSans findfont
14.000 scalefont
setfont
gsave
12.242070 351.501577 translate
0.000000 rotate
0.000000 0 m /parenleft glyphshow
5.461914 0 m /a glyphshow
14.041016 0 m /parenright glyphshow
grestore
gsave
57.672 154.662045 m
274.005 154.662045 l
274.005 250.272826 l
57.672 250.272826 l
cl
1.000 setgray
fill
grestore
1 setlinejoin
0 setlinecap
[] 0 setdash
gsave
/o {
gsave
newpath
translate
0.8 setlinewidth
1 setlinejoin
0 setlinecap
0 0 m
0 -3.5 l

gsave
0.000 setgray
fill
grestore
stroke
grestore
} bind def
57.672 154.662 o
grestore
gsave
/o {
gsave
newpath
translate
0.8 setlinewidth
1 setlinejoin
0 setlinecap
0 0 m
0 -3.5 l

gsave
0.000 setgray
fill
grestore
stroke
grestore
} bind def
111.755 154.662 o
grestore
gsave
/o {
gsave
newpath
translate
0.8 setlinewidth
1 setlinejoin
0 setlinecap
0 0 m
0 -3.5 l

gsave
0.000 setgray
fill
grestore
stroke
grestore
} bind def
165.839 154.662 o
grestore
gsave
/o {
gsave
newpath
translate
0.8 setlinewidth
1 setlinejoin
0 setlinecap
0 0 m
0 -3.5 l

gsave
0.000 setgray
fill
grestore
stroke
grestore
} bind def
219.922 154.662 o
grestore
gsave
/o {
gsave
newpath
translate
0.8 setlinewidth
1 setlinejoin
0 setlinecap
0 0 m
0 -3.5 l

gsave
0.000 setgray
fill
grestore
stroke
grestore
} bind def
274.005 154.662 o
grestore
gsave
/o {
gsave
newpath
translate
0.8 setlinewidth
1 setlinejoin
0 setlinecap
0 0 m
-3.5 0 l

gsave
0.000 setgray
fill
grestore
stroke
grestore
} bind def
57.672 179.546 o
grestore
/DejaVuSans findfont
10.000 scalefont
setfont
gsave
37.953250 175.749258 translate
0.000000 rotate
0.000000 0 m /two glyphshow
6.362305 0 m /zero glyphshow
grestore
gsave
/o {
gsave
newpath
translate
0.8 setlinewidth
1 setlinejoin
0 setlinecap
0 0 m
-3.5 0 l

gsave
0.000 setgray
fill
grestore
stroke
grestore
} bind def
57.672 213.477 o
grestore
gsave
37.953250 209.680061 translate
0.000000 rotate
0.000000 0 m /four glyphshow
6.362305 0 m /zero glyphshow
grestore
gsave
/o {
gsave
newpath
translate
0.8 setlinewidth
1 setlinejoin
0 setlinecap
0 0 m
-3.5 0 l

gsave
0.000 setgray
fill
grestore
stroke
grestore
} bind def
57.672 247.408 o
grestore
gsave
37.953250 243.610864 translate
0.000000 rotate
0.000000 0 m /six glyphshow
6.362305 0 m /zero glyphshow
grestore
gsave
31.453250 186.467435 translate
90.000000 rotate
/DejaVuSans-Oblique findfont
12.0 scalefont
setfont
0.000000 0.781250 moveto
/theta glyphshow
/DejaVuSans findfont
12.0 scalefont
setfont
7.341797 0.781250 moveto
/space glyphshow
11.156250 0.781250 moveto
/parenleft glyphshow
15.837891 0.781250 moveto
/percent glyphshow
27.240234 0.781250 moveto
/parenright glyphshow

grestore
1.500 setlinewidth
2 setlinecap
0.608 0.349 0.714 setrgbcolor
gsave
216.3 95.61 57.67 154.7 clipbox
57.672 209.10427 m
68.48865 209.609001 l
79.3053 211.030375 l
90.12195 213.137947 l
100.9386 215.662913 l
111.75525 218.380429 l
122.5719 221.121292 l
133.38855 223.786213 l
144.2052 226.319629 l
155.02185 228.703552 l
165.8385 230.918383 l
176.65515 232.972257 l
187.4718 234.873611 l
198.28845 236.639278 l
209.1051 238.270083 l
219.92175 239.782483 l
230.7384 241.190941 l
241.55505 242.498799 l
252.3717 243.718338 l
263.18835 244.857793 l
274.005 245.926881 l
stroke
grestore
0.180 0.800 0.443 setrgbcolor
gsave
216.3 95.61 57.67 154.7 clipbox
57.672 191.781695 m
68.48865 192.262846 l
79.3053 193.630543 l
90.12195 195.693895 l
100.9386 198.223422 l
111.75525 201.018034 l
122.5719 203.916782 l
133.38855 206.815627 l
144.2052 209.648313 l
155.02185 212.383222 l
165.8385 214.990102 l
176.65515 217.465436 l
187.4718 219.81248 l
198.28845 222.027747 l
209.1051 224.120142 l
219.92175 226.096653 l
230.7384 227.96723 l
241.55505 229.734566 l
252.3717 231.408022 l
263.18835 232.994383 l
274.005 234.501376 l
stroke
grestore
0.584 0.647 0.651 setrgbcolor
gsave
216.3 95.61 57.67 154.7 clipbox
57.672 159.448189 m
68.48865 163.948216 l
79.3053 172.071782 l
90.12195 177.459477 l
100.9386 181.770159 l
111.75525 185.562339 l
122.5719 188.994525 l
133.38855 192.139535 l
144.2052 195.015623 l
155.02185 197.652232 l
165.8385 200.071693 l
176.65515 202.298203 l
187.4718 204.346801 l
198.28845 206.238545 l
209.1051 207.990011 l
219.92175 209.615913 l
230.7384 211.132138 l
241.55505 212.54464 l
252.3717 213.865943 l
263.18835 215.104809 l
274.005 216.26894 l
stroke
grestore
0.906 0.298 0.235 setrgbcolor
gsave
216.3 95.61 57.67 154.7 clipbox
57.672 159.007989 m
68.48865 159.937457 l
79.3053 162.513192 l
90.12195 166.304109 l
100.9386 170.774093 l
111.75525 175.382593 l
122.5719 179.784945 l
133.38855 183.852161 l
144.2052 187.570433 l
155.02185 190.954815 l
165.8385 194.069791 l
176.65515 196.924609 l
187.4718 199.561444 l
198.28845 202.014857 l
209.1051 204.290159 l
219.92175 206.414555 l
230.7384 208.409979 l
241.55505 210.278761 l
252.3717 212.038488 l
263.18835 213.699471 l
274.005 215.270688 l
stroke
grestore
0.800 setlinewidth
0 setlinejoin
[] 0 setdash
0.000 setgray
gsave
57.672 154.662045 m
57.672 250.272826 l
stroke
grestore
gsave
274.005 154.662045 m
274.005 250.272826 l
stroke
grestore
gsave
57.672 154.662045 m
274.005 154.662045 l
stroke
grestore
gsave
57.672 250.272826 m
274.005 250.272826 l
stroke
grestore
/DejaVuSans findfont
14.000 scalefont
setfont
gsave
12.242070 238.799532 translate
0.000000 rotate
0.000000 0 m /parenleft glyphshow
5.461914 0 m /b glyphshow
14.348633 0 m /parenright glyphshow
grestore
gsave
57.672 41.96 m
274.005 41.96 l
274.005 137.570781 l
57.672 137.570781 l
cl
1.000 setgray
fill
grestore
1 setlinejoin
0 setlinecap
[] 0 setdash
gsave
/o {
gsave
newpath
translate
0.8 setlinewidth
1 setlinejoin
0 setlinecap
0 0 m
0 -3.5 l

gsave
0.000 setgray
fill
grestore
stroke
grestore
} bind def
57.672 41.96 o
grestore
/DejaVuSans findfont
10.000 scalefont
setfont
gsave
54.492312 27.366250 translate
0.000000 rotate
0.000000 0 m /zero glyphshow
grestore
gsave
/o {
gsave
newpath
translate
0.8 setlinewidth
1 setlinejoin
0 setlinecap
0 0 m
0 -3.5 l

gsave
0.000 setgray
fill
grestore
stroke
grestore
} bind def
111.755 41.96 o
grestore
gsave
108.575562 27.366250 translate
0.000000 rotate
0.000000 0 m /one glyphshow
grestore
gsave
/o {
gsave
newpath
translate
0.8 setlinewidth
1 setlinejoin
0 setlinecap
0 0 m
0 -3.5 l

gsave
0.000 setgray
fill
grestore
stroke
grestore
} bind def
165.839 41.96 o
grestore
gsave
162.658813 27.366250 translate
0.000000 rotate
0.000000 0 m /two glyphshow
grestore
gsave
/o {
gsave
newpath
translate
0.8 setlinewidth
1 setlinejoin
0 setlinecap
0 0 m
0 -3.5 l

gsave
0.000 setgray
fill
grestore
stroke
grestore
} bind def
219.922 41.96 o
grestore
gsave
216.742063 27.366250 translate
0.000000 rotate
0.000000 0 m /three glyphshow
grestore
gsave
/o {
gsave
newpath
translate
0.8 setlinewidth
1 setlinejoin
0 setlinecap
0 0 m
0 -3.5 l

gsave
0.000 setgray
fill
grestore
stroke
grestore
} bind def
274.005 41.96 o
grestore
gsave
270.825312 27.366250 translate
0.000000 rotate
0.000000 0 m /four glyphshow
grestore
gsave
112.229125 13.694375 translate
0.000000 rotate
0.000000 0 m /b glyphshow
6.347656 0 m /i glyphshow
9.125977 0 m /a glyphshow
15.253906 0 m /s glyphshow
20.463867 0 m /i glyphshow
23.242188 0 m /n glyphshow
29.580078 0 m /g glyphshow
35.927734 0 m /space glyphshow
39.106445 0 m /f glyphshow
42.626953 0 m /i glyphshow
45.405273 0 m /e glyphshow
51.557617 0 m /l glyphshow
54.335938 0 m /d glyphshow
60.683594 0 m /space glyphshow
63.862305 0 m /parenleft glyphshow
67.763672 0 m /k glyphshow
73.554688 0 m /V glyphshow
80.395508 0 m /slash glyphshow
83.764648 0 m /m glyphshow
93.505859 0 m /m glyphshow
103.247070 0 m /parenright glyphshow
grestore
gsave
/o {
gsave
newpath
translate
0.8 setlinewidth
1 setlinejoin
0 setlinecap
0 0 m
-3.5 0 l

gsave
0.000 setgray
fill
grestore
stroke
grestore
} bind def
57.672 56.135 o
grestore
gsave
32.672000 51.674099 translate
0.000000 rotate
/DejaVuSans findfont
10.0 scalefont
setfont
0.000000 0.976562 moveto
/one glyphshow
6.362305 0.976562 moveto
/zero glyphshow
/DejaVuSans findfont
7.0 scalefont
setfont
12.820312 4.804688 moveto
/zero glyphshow

grestore
gsave
/o {
gsave
newpath
translate
0.8 setlinewidth
1 setlinejoin
0 setlinecap
0 0 m
-3.5 0 l

gsave
0.000 setgray
fill
grestore
stroke
grestore
} bind def
57.672 104.427 o
grestore
gsave
32.672000 100.466026 translate
0.000000 rotate
/DejaVuSans findfont
10.0 scalefont
setfont
0.000000 0.064063 moveto
/one glyphshow
6.362305 0.064063 moveto
/zero glyphshow
/DejaVuSans findfont
7.0 scalefont
setfont
12.820312 3.892188 moveto
/one glyphshow

grestore
0.600 setlinewidth
gsave
/o {
gsave
newpath
translate
0.6 setlinewidth
1 setlinejoin
0 setlinecap
0 0 m
-2 0 l

gsave
0.000 setgray
fill
grestore
stroke
grestore
} bind def
57.672 45.4215 o
grestore
gsave
/o {
gsave
newpath
translate
0.6 setlinewidth
1 setlinejoin
0 setlinecap
0 0 m
-2 0 l

gsave
0.000 setgray
fill
grestore
stroke
grestore
} bind def
57.672 48.6545 o
grestore
gsave
/o {
gsave
newpath
translate
0.6 setlinewidth
1 setlinejoin
0 setlinecap
0 0 m
-2 0 l

gsave
0.000 setgray
fill
grestore
stroke
grestore
} bind def
57.672 51.4551 o
grestore
gsave
/o {
gsave
newpath
translate
0.6 setlinewidth
1 setlinejoin
0 setlinecap
0 0 m
-2 0 l

gsave
0.000 setgray
fill
grestore
stroke
grestore
} bind def
57.672 53.9253 o
grestore
gsave
/o {
gsave
newpath
translate
0.6 setlinewidth
1 setlinejoin
0 setlinecap
0 0 m
-2 0 l

gsave
0.000 setgray
fill
grestore
stroke
grestore
} bind def
57.672 70.6724 o
grestore
gsave
/o {
gsave
newpath
translate
0.6 setlinewidth
1 setlinejoin
0 setlinecap
0 0 m
-2 0 l

gsave
0.000 setgray
fill
grestore
stroke
grestore
} bind def
57.672 79.1761 o
grestore
gsave
/o {
gsave
newpath
translate
0.6 setlinewidth
1 setlinejoin
0 setlinecap
0 0 m
-2 0 l

gsave
0.000 setgray
fill
grestore
stroke
grestore
} bind def
57.672 85.2097 o
grestore
gsave
/o {
gsave
newpath
translate
0.6 setlinewidth
1 setlinejoin
0 setlinecap
0 0 m
-2 0 l

gsave
0.000 setgray
fill
grestore
stroke
grestore
} bind def
57.672 89.8896 o
grestore
gsave
/o {
gsave
newpath
translate
0.6 setlinewidth
1 setlinejoin
0 setlinecap
0 0 m
-2 0 l

gsave
0.000 setgray
fill
grestore
stroke
grestore
} bind def
57.672 93.7135 o
grestore
gsave
/o {
gsave
newpath
translate
0.6 setlinewidth
1 setlinejoin
0 setlinecap
0 0 m
-2 0 l

gsave
0.000 setgray
fill
grestore
stroke
grestore
} bind def
57.672 96.9464 o
grestore
gsave
/o {
gsave
newpath
translate
0.6 setlinewidth
1 setlinejoin
0 setlinecap
0 0 m
-2 0 l

gsave
0.000 setgray
fill
grestore
stroke
grestore
} bind def
57.672 99.747 o
grestore
gsave
/o {
gsave
newpath
translate
0.6 setlinewidth
1 setlinejoin
0 setlinecap
0 0 m
-2 0 l

gsave
0.000 setgray
fill
grestore
stroke
grestore
} bind def
57.672 102.217 o
grestore
gsave
/o {
gsave
newpath
translate
0.6 setlinewidth
1 setlinejoin
0 setlinecap
0 0 m
-2 0 l

gsave
0.000 setgray
fill
grestore
stroke
grestore
} bind def
57.672 118.964 o
grestore
gsave
/o {
gsave
newpath
translate
0.6 setlinewidth
1 setlinejoin
0 setlinecap
0 0 m
-2 0 l

gsave
0.000 setgray
fill
grestore
stroke
grestore
} bind def
57.672 127.468 o
grestore
gsave
/o {
gsave
newpath
translate
0.6 setlinewidth
1 setlinejoin
0 setlinecap
0 0 m
-2 0 l

gsave
0.000 setgray
fill
grestore
stroke
grestore
} bind def
57.672 133.502 o
grestore
gsave
26.172000 85.765391 translate
90.000000 rotate
/DejaVuSans-Oblique findfont
12.0 scalefont
setfont
0.000000 0.437500 moveto
/kappa glyphshow

grestore
1.500 setlinewidth
2 setlinecap
0.608 0.349 0.714 setrgbcolor
gsave
216.3 95.61 57.67 41.96 clipbox
68.48865 52.594269 m
79.3053 52.381702 l
90.12195 52.070005 l
100.9386 51.698659 l
111.75525 51.32632 l
122.5719 50.929351 l
133.38855 50.533301 l
144.2052 50.143239 l
155.02185 49.782292 l
165.8385 49.415053 l
176.65515 49.057913 l
187.4718 48.710973 l
198.28845 48.387252 l
209.1051 48.061615 l
219.92175 47.745337 l
230.7384 47.445733 l
241.55505 47.147636 l
252.3717 46.857721 l
263.18835 46.575619 l
274.005 46.305945 l
stroke
grestore
0.180 0.800 0.443 setrgbcolor
gsave
216.3 95.61 57.67 41.96 clipbox
68.48865 57.910007 m
79.3053 57.789654 l
90.12195 57.621667 l
100.9386 57.433878 l
111.75525 57.275345 l
122.5719 57.109922 l
133.38855 56.95648 l
144.2052 56.814504 l
155.02185 56.705549 l
165.8385 56.587665 l
176.65515 56.477103 l
187.4718 56.386221 l
198.28845 56.289312 l
209.1051 56.197028 l
219.92175 56.108842 l
230.7384 56.033636 l
241.55505 55.953181 l
252.3717 55.875671 l
263.18835 55.800856 l
274.005 55.734839 l
stroke
grestore
0.584 0.647 0.651 setrgbcolor
gsave
216.3 95.61 57.67 41.96 clipbox
68.48865 133.224837 m
79.3053 115.581231 l
90.12195 100.775225 l
100.9386 91.239983 l
111.75525 84.817146 l
122.5719 80.25947 l
133.38855 76.830399 l
144.2052 74.177857 l
155.02185 72.048654 l
165.8385 70.295855 l
176.65515 68.810576 l
187.4718 67.55154 l
198.28845 66.459856 l
209.1051 65.501763 l
219.92175 64.652137 l
230.7384 63.883178 l
241.55505 63.197401 l
252.3717 62.574578 l
263.18835 62.005433 l
274.005 61.482468 l
stroke
grestore
0.906 0.298 0.235 setrgbcolor
gsave
216.3 95.61 57.67 41.96 clipbox
68.48865 101.226697 m
79.3053 98.362755 l
90.12195 95.10521 l
100.9386 91.805964 l
111.75525 88.607606 l
122.5719 85.668475 l
133.38855 83.081274 l
144.2052 80.855141 l
155.02185 78.951237 l
165.8385 77.329124 l
176.65515 75.934644 l
187.4718 74.729107 l
198.28845 73.677459 l
209.1051 72.754314 l
219.92175 71.93735 l
230.7384 71.207373 l
241.55505 70.553892 l
252.3717 69.964002 l
263.18835 69.428497 l
274.005 68.93982 l
stroke
grestore
0.800 setlinewidth
0 setlinejoin
[] 0 setdash
0.000 setgray
gsave
57.672 41.96 m
57.672 137.570781 l
stroke
grestore
gsave
274.005 41.96 m
274.005 137.570781 l
stroke
grestore
gsave
57.672 41.96 m
274.005 41.96 l
stroke
grestore
gsave
57.672 137.570781 m
274.005 137.570781 l
stroke
grestore
/DejaVuSans findfont
14.000 scalefont
setfont
gsave
12.242070 126.097488 translate
0.000000 rotate
0.000000 0 m /parenleft glyphshow
5.461914 0 m /c glyphshow
13.159180 0 m /parenright glyphshow
grestore
1.000 setlinewidth
0 setlinecap
0.800 setgray
gsave
209.805 82.858281 m
268.405 82.858281 l
269.471667 82.858281 270.005 83.391615 270.005 84.458281 c
270.005 131.970781 l
270.005 133.037448 269.471667 133.570781 268.405 133.570781 c
209.805 133.570781 l
208.738333 133.570781 208.205 133.037448 208.205 131.970781 c
208.205 84.458281 l
208.205 83.391615 208.738333 82.858281 209.805 82.858281 c
cl
gsave
1.000 setgray
fill
grestore
stroke
grestore
1.500 setlinewidth
1 setlinejoin
2 setlinecap
[] 0 setdash
0.608 0.349 0.714 setrgbcolor
gsave
211.405 127.092656 m
227.405 127.092656 l
stroke
grestore
0.000 setgray
gsave
233.805000 124.292656 translate
0.000000 rotate
/DejaVuSans-Oblique findfont
8.0 scalefont
setfont
0.000000 0.062500 moveto
/p glyphshow
/DejaVuSans findfont
8.0 scalefont
setfont
6.636719 0.062500 moveto
/equal glyphshow
14.898438 0.062500 moveto
/zero glyphshow
19.988281 0.062500 moveto
/period glyphshow
22.531250 0.062500 moveto
/one glyphshow
27.621094 0.062500 moveto
/zero glyphshow

grestore
0.180 0.800 0.443 setrgbcolor
gsave
211.405 115.014531 m
227.405 115.014531 l
stroke
grestore
0.000 setgray
gsave
233.805000 112.214531 translate
0.000000 rotate
/DejaVuSans-Oblique findfont
8.0 scalefont
setfont
0.000000 0.062500 moveto
/p glyphshow
/DejaVuSans findfont
8.0 scalefont
setfont
6.636719 0.062500 moveto
/equal glyphshow
14.898438 0.062500 moveto
/zero glyphshow
19.988281 0.062500 moveto
/period glyphshow
22.156250 0.062500 moveto
/two glyphshow
27.246094 0.062500 moveto
/five glyphshow

grestore
0.584 0.647 0.651 setrgbcolor
gsave
211.405 102.936406 m
227.405 102.936406 l
stroke
grestore
0.000 setgray
gsave
233.805000 100.136406 translate
0.000000 rotate
/DejaVuSans-Oblique findfont
8.0 scalefont
setfont
0.000000 0.062500 moveto
/p glyphshow
/DejaVuSans findfont
8.0 scalefont
setfont
6.636719 0.062500 moveto
/equal glyphshow
14.898438 0.062500 moveto
/zero glyphshow
19.988281 0.062500 moveto
/period glyphshow
22.531250 0.062500 moveto
/three glyphshow
27.621094 0.062500 moveto
/five glyphshow

grestore
0.906 0.298 0.235 setrgbcolor
gsave
211.405 90.858281 m
227.405 90.858281 l
stroke
grestore
0.000 setgray
gsave
233.805000 88.058281 translate
0.000000 rotate
/DejaVuSans-Oblique findfont
8.0 scalefont
setfont
0.000000 0.062500 moveto
/p glyphshow
/DejaVuSans findfont
8.0 scalefont
setfont
6.636719 0.062500 moveto
/equal glyphshow
14.898438 0.062500 moveto
/zero glyphshow
19.988281 0.062500 moveto
/period glyphshow
22.531250 0.062500 moveto
/nine glyphshow
27.621094 0.062500 moveto
/five glyphshow

grestore

end
showpage
